Grand Challenges India HBGDki Training
…
Reading in the Data

We described our three data files above, enrollment.csv, anthro.csv, and post.csv. These are all located in a subdirectory, data/.

We can read these three files into R as R data frames using the read_csv() function available in the Tidyverse “readr” R package. After reading them in, we will take a look at the enroll data frame.

enroll <- read_csv("data/enrollment.csv")
anthro <- read_csv("data/anthro.csv")
post <- read_csv("data/post.csv")

enroll

## # A tibble: 250 × 14
##    SUBJID APGAR5 GAGEBRTH MEDUCYRS BIRTHWT BIRTHLEN       DELIVERY    SES
##     <int>  <dbl>    <dbl>    <int>   <int>    <dbl>          <chr>  <chr>
## 1       0     NA      270       10    2800    48.00 Normal Vaginal Middle
## 2       1     10      283        3    3725    51.90 Normal Vaginal Middle
## 3       2     NA      272        0    2680    46.80 Normal Vaginal    Low
## 4       3     NA      288        0    2540    47.05 Normal Vaginal    Low
## 5       4     NA      285       10    2700       NA Normal Vaginal    Low
## 6       5     NA      282        0    2960    49.00 Normal Vaginal    Low
## 7       6     NA      289        5    3300    55.00 Normal Vaginal Middle
## 8       7     NA      272        0    1960    46.00 Normal Vaginal    Low
## 9       8     NA      267        0    3000    42.03 Normal Vaginal    Low
## 10      9     NA      280        0    2300    54.30 Normal Vaginal    Low
## # ... with 240 more rows, and 6 more variables: GRAVIDA <int>,
## #   NLCHILD <int>, DLVLOC <chr>, COMPRISK <chr>, EDUCCRGV <int>, SEX <chr>
…
Joining the Data

We want to merge these three data frames into a single dataset that we can use for analysis.

First, let’s merge the enrollment data and the anthro data. As we saw above, the enrollment data has one row per subject, while the anthro data has multiple records per subject. To merge the two, we want to match on subject IDs and preserve all the data. We can do this with a “full join” of the two datasets, which preserves all rows from both data sets based on a common variable or set of variables, repeating any rows as necessary.

In the Tidyverse package “dplyr”, we can use the full_join() function in dplyr to achieve a full join. This function will detect any columns the two datasets have in common and use them as the joining variables (here, the common variable is subjid, which is what we want to merge on).

anthro_enroll <- full_join(anthro, enroll)

## Joining, by = "SUBJID"

anthro_enroll

## # A tibble: 9,062 × 18
##    SUBJID AGEDAY   BMI  HTCM  WTKG APGAR5 GAGEBRTH MEDUCYRS BIRTHWT
##     <int>  <int> <dbl> <dbl> <dbl>  <dbl>    <dbl>    <int>   <int>
## 1       0      1 12.15 49.11  2.94     NA      270       10    2800
## 2       0     32 14.19 52.82  3.77     NA      270       10    2800
## 3       0     57 12.48 57.88  4.55     NA      270       10    2800
## 4       0     90 15.05 61.06  5.41     NA      270       10    2800
## 5       0    126 15.13 63.46  6.25     NA      270       10    2800
## 6       0    153 16.19 64.65  6.76     NA      270       10    2800
## 7       0    182 16.80 66.10  7.04     NA      270       10    2800
## 8       0    218 14.61 68.68  7.18     NA      270       10    2800
## 9       0    247 14.82 70.09  7.39     NA      270       10    2800
## 10      0    272 15.36 70.84  7.91     NA      270       10    2800
## # ... with 9,052 more rows, and 9 more variables: BIRTHLEN <dbl>,
## #   DELIVERY <chr>, SES <chr>, GRAVIDA <int>, NLCHILD <int>, DLVLOC <chr>,
## #   COMPRISK <chr>, EDUCCRGV <int>, SEX <chr>

It looks like we have successfully joined the data.

We can join in the “post” dataset in a similar fashion. We will call the output of all three merged files dat, and this will be the dataset we use for our analyses.

dat <- full_join(anthro_enroll, post)

## Joining, by = "SUBJID"

dat

## # A tibble: 9,062 × 22
##    SUBJID AGEDAY   BMI  HTCM  WTKG APGAR5 GAGEBRTH MEDUCYRS BIRTHWT
##     <int>  <int> <dbl> <dbl> <dbl>  <dbl>    <dbl>    <int>   <int>
## 1       0      1 12.15 49.11  2.94     NA      270       10    2800
## 2       0     32 14.19 52.82  3.77     NA      270       10    2800
## 3       0     57 12.48 57.88  4.55     NA      270       10    2800
## 4       0     90 15.05 61.06  5.41     NA      270       10    2800
## 5       0    126 15.13 63.46  6.25     NA      270       10    2800
## 6       0    153 16.19 64.65  6.76     NA      270       10    2800
## 7       0    182 16.80 66.10  7.04     NA      270       10    2800
## 8       0    218 14.61 68.68  7.18     NA      270       10    2800
## 9       0    247 14.82 70.09  7.39     NA      270       10    2800
## 10      0    272 15.36 70.84  7.91     NA      270       10    2800
## # ... with 9,052 more rows, and 13 more variables: BIRTHLEN <dbl>,
## #   DELIVERY <chr>, SES <chr>, GRAVIDA <int>, NLCHILD <int>, DLVLOC <chr>,
## #   COMPRISK <chr>, EDUCCRGV <int>, SEX <chr>, SUMEP <dbl>, SUMDIAR <dbl>,
## #   SUMDAYS <int>, PCTDIAR <dbl>
…
Looking at the data on the z-score scale helps us notice trajectories that stand out from what is expected. For example we see several trajectories that appear to dip down low early on and recover. In the next section we will discuss a some methods for more targeted exploration of these trajectories.

Exploring Trajectories

We can further explore growth trajectories that have interesting patterns by computing metrics for each child’s trajectory and then use these metrics to filter down to trajectories of interest.

Grouping the data by subject

There are some useful methods in the hbgd package for computing meaningful metrics about growth trajectories. To compute these metrics, we want to reduce our data to one row per subject, using a function by_subject().

subjdat <- by_subject(dat)

subjdat %>% select(subjid, longi) # just look at two columns

## # A tibble: 250 × 2
##    subjid             longi
##     <int>            <list>
## 1       0 <tibble [36 × 6]>
## 2       1 <tibble [34 × 6]>
## 3       2 <tibble [37 × 6]>
## 4       3 <tibble [37 × 6]>
## 5       4 <tibble [36 × 6]>
## 6       5 <tibble [36 × 6]>
## 7       6 <tibble [34 × 6]>
## 8       7 <tibble [37 × 6]>
## 9       8 <tibble [37 × 6]>
## 10      9 <tibble [36 × 6]>
## # ... with 240 more rows

We see that the result of calling by_subject() on our data returns a data frame with 250 rows – one row per subject. But what happened to our longitudinal data? If you look closely at the output dataset subdat, you will see that there is a new column, longi, which is a data frame of the longitudinal data for the subject. This column is not a scalar data type like we are used to seeing in cells of a data frame, but is a “list column”. This is a useful way to store arbitrary data in a data frame format, and you can read more about this here.

If you are curious to inspect what is contained in the longi column, we can inspect it for the first subject:

subjdat[1,]$longi

## [[1]]
## # A tibble: 36 × 6
##    agedays   bmi  htcm  wtkg         haz        waz
##      <int> <dbl> <dbl> <dbl>       <dbl>      <dbl>
## 1        1 12.15 49.11  2.94 -0.50143163 -0.8066406
## 2       32 14.19 52.82  3.77 -1.08570158 -1.3590945
## 3       57 12.48 57.88  4.55 -0.06032947 -1.4145799
## 4       90 15.05 61.06  5.41 -0.12314631 -1.3389433
## 5      126 15.13 63.46  6.25 -0.35031483 -1.0948036
## 6      153 16.19 64.65  6.76 -0.61625531 -0.9582341
## 7      182 16.80 66.10  7.04 -0.69647722 -1.0736331
## 8      218 14.61 68.68  7.18 -0.33223351 -1.3751658
## 9      247 14.82 70.09  7.39 -0.30310044 -1.4348014
## 10     272 15.36 70.84  7.91 -0.46544039 -1.0614179
## # ... with 26 more rows
…
More options for this plot function can be found by typing ?plot.subjDiv in your R console.

Your Turn: Does this subject’s weight trajectory show any signs of a corresponding pattern? Hint: use the plot() with variables “wtkg”, and “waz”.

message('Your code goes here')

Computing trajectory metrics, or “cognostics”

We can choose which trajectories to visualize in a more meaningful way by adding some metrics, which we call “cognostics” (TODO: define) to the data. Using the hbgd package, this can be done with a function add_longi_cogs().

subjdat <- add_longi_cogs(subjdat)

subjdat %>% select(subjid, longi) # just look at two columns

## # A tibble: 250 × 2
##    subjid             longi
##     <int>            <list>
## 1       0 <tibble [36 × 6]>
## 2       1 <tibble [34 × 6]>
## 3       2 <tibble [37 × 6]>
## 4       3 <tibble [37 × 6]>
## 5       4 <tibble [36 × 6]>
## 6       5 <tibble [36 × 6]>
## 7       6 <tibble [34 × 6]>
## 8       7 <tibble [37 × 6]>
## 9       8 <tibble [37 × 6]>
## 10      9 <tibble [36 × 6]>
## # ... with 240 more rows
…
We see that there are 5 subjects. If we want to make a similar plot as before with just these subjects, we first need to unnest the data in the longi column using a Tidyverse function, unnest().

low_early <- unnest(low_early)

low_early

## # A tibble: 180 × 36
##    subjid apgar5 gagebrth meducyrs birthwt birthlen       delivery    ses
##     <int>  <chr>    <dbl>    <dbl>   <dbl>    <dbl>          <chr>  <chr>
## 1      60   <NA>      277        0    3000       40 Normal Vaginal Middle
## 2      60   <NA>      277        0    3000       40 Normal Vaginal Middle
## 3      60   <NA>      277        0    3000       40 Normal Vaginal Middle
## 4      60   <NA>      277        0    3000       40 Normal Vaginal Middle
## 5      60   <NA>      277        0    3000       40 Normal Vaginal Middle
## 6      60   <NA>      277        0    3000       40 Normal Vaginal Middle
## 7      60   <NA>      277        0    3000       40 Normal Vaginal Middle
## 8      60   <NA>      277        0    3000       40 Normal Vaginal Middle
## 9      60   <NA>      277        0    3000       40 Normal Vaginal Middle
## 10     60   <NA>      277        0    3000       40 Normal Vaginal Middle
## # ... with 170 more rows, and 28 more variables: gravida <chr>,
## #   nlchild <chr>, dlvloc <chr>, comprisk <chr>, educcrgv <dbl>,
## #   sex <chr>, sumep <dbl>, sumdiar <dbl>, sumdays <dbl>, pctdiar <dbl>,
## #   min_haz <dbl>, min_haz_age <dbl>, max_haz <dbl>, max_haz_age <dbl>,
## #   min_waz <dbl>, min_waz_age <dbl>, max_waz <dbl>, max_waz_age <dbl>,
## #   haz_1day <dbl>, haz_6months <dbl>, haz_12months <dbl>,
## #   haz_24months <dbl>, agedays <int>, bmi <dbl>, htcm <dbl>, wtkg <dbl>,
## #   haz <dbl>, waz <dbl>
…
message('Your code goes here')

Interacting with trajectories using Trelliscope

Rather than manually creating trajectory plots for each subject or group of subjects, it is useful to be able to potentially look at any growth trajectory on-demand, and to interactively call trajectories to attention based on different search criteria.

We can accomplish this using the “trelliscopejs” package. Trelliscope is a visualization technique that allows you to create a database of a potentially very large number of plots which you can sort and filter in an interactive viewer. The variables against which you sort and filter are the “cognostics” that we’ve discussed before.

To create a Trelliscope plot, we first add a trajectory plot to each row of our data. This may take 10-20 seconds.

subjdat <- add_trajectory_plot(subjdat, y_var = "haz")

subjdat %>% select(subjid, longi, panel) # just look at three columns

## # A tibble: 250 × 3
##    subjid             longi        panel
##     <int>            <list>       <list>
## 1       0 <tibble [36 × 6]> <S3: rbokeh>
## 2       1 <tibble [34 × 6]> <S3: rbokeh>
## 3       2 <tibble [37 × 6]> <S3: rbokeh>
## 4       3 <tibble [37 × 6]> <S3: rbokeh>
## 5       4 <tibble [36 × 6]> <S3: rbokeh>
## 6       5 <tibble [36 × 6]> <S3: rbokeh>
## 7       6 <tibble [34 × 6]> <S3: rbokeh>
## 8       7 <tibble [37 × 6]> <S3: rbokeh>
## 9       8 <tibble [37 × 6]> <S3: rbokeh>
## 10      9 <tibble [36 × 6]> <S3: rbokeh>
## # ... with 240 more rows
…
datfit

## Object obtained from get_fit() using method 'brokenstick'.
## Use str() to inspect or fit_trajectory() or fit_all_trajectories()
## to obtain fitted values for subjects.

The resulting object is a fit object from the fitting method along with other information about the fit.

We can apply this fitting result to all of our subjects using fit_all_trajectories().

allfits <- fit_all_trajectories(dat, datfit)

allfits

## # A tibble: 250 × 20
##    subjid apgar5 gagebrth meducyrs birthwt birthlen       delivery    ses
##     <int>  <dbl>    <dbl>    <int>   <int>    <dbl>          <chr>  <chr>
## 1       0     NA      270       10    2800    48.00 Normal Vaginal Middle
## 2       1     10      283        3    3725    51.90 Normal Vaginal Middle
## 3       2     NA      272        0    2680    46.80 Normal Vaginal    Low
## 4       3     NA      288        0    2540    47.05 Normal Vaginal    Low
## 5       4     NA      285       10    2700       NA Normal Vaginal    Low
## 6       5     NA      282        0    2960    49.00 Normal Vaginal    Low
## 7       6     NA      289        5    3300    55.00 Normal Vaginal Middle
## 8       7     NA      272        0    1960    46.00 Normal Vaginal    Low
## 9       8     NA      267        0    3000    42.03 Normal Vaginal    Low
## 10      9     NA      280        0    2300    54.30 Normal Vaginal    Low
## # ... with 240 more rows, and 12 more variables: gravida <int>,
## #   nlchild <int>, dlvloc <chr>, comprisk <chr>, educcrgv <int>,
## #   sex <chr>, sumep <dbl>, sumdiar <dbl>, sumdays <int>, pctdiar <dbl>,
## #   longi <list>, fit <list>
…
